{
  "project_info": {
    "project_number": "838600751534",
    "firebase_url": "https://ihobe-d7bfe.firebaseio.com",
    "project_id": "ihobe-d7bfe",
    "storage_bucket": "ihobe-d7bfe.appspot.com"
  },
  "client": [
    {
      "client_info": {
        "mobilesdk_app_id": "1:838600751534:android:ee832540a2736b2e",
        "android_client_info": {
          "package_name": "com.ingurumena.mobile"
        }
      },
      "oauth_client": [
        {
          "client_id": "838600751534-t8lub2v1o90p88fhj5fa9ffbmrt8i8nb.apps.googleusercontent.com",
          "client_type": 3
        }
      ],
      "api_key": [
        {
          "current_key": "AIzaSyBk73Hhc9Ye9cEh68rRntCxXkQxEOjtHkE"
        }
      ],
      "services": {
        "appinvite_service": {
          "other_platform_oauth_client": [
            {
              "client_id": "838600751534-t8lub2v1o90p88fhj5fa9ffbmrt8i8nb.apps.googleusercontent.com",
              "client_type": 3
            },
            {
              "client_id": "838600751534-jnktu45ga5in472feabrgbledlpnkael.apps.googleusercontent.com",
              "client_type": 2,
              "ios_info": {
                "bundle_id": "com.ingurumena.mobile"
              }
            }
          ]
        }
      }
    }
  ],
  "configuration_version": "1"
}